ethernet_sel_which_seq_to_disable/test.vcd
$date
	Thu Apr 13 11:53:22 2023
$end
$version
	QuestaSim Version 10.7d
$end
$timescale
	1ps
$end

$scope module uvm_root $end
$upscope $end

$scope module top $end
$upscope $end

$scope begin uvm_pkg $end
$var parameter 32 ! UVM_HDL_MAX_WIDTH $end
$var parameter 32 " UVM_STREAMBITS $end
$var parameter 32 # UVM_RADIX $end
$var parameter 32 $ UVM_MACRO_NUMFLAGS $end
$var parameter 32 % UVM_DEFAULT $end
$var parameter 32 & UVM_ALL_ON $end
$var parameter 32 ' UVM_FLAGS_ON $end
$var parameter 32 ( UVM_FLAGS_OFF $end
$var parameter 32 ) UVM_COPY $end
$var parameter 32 * UVM_NOCOPY $end
$var parameter 32 + UVM_COMPARE $end
$var parameter 32 , UVM_NOCOMPARE $end
$var parameter 32 - UVM_PRINT $end
$var parameter 32 . UVM_NOPRINT $end
$var parameter 32 / UVM_RECORD $end
$var parameter 32 0 UVM_NORECORD $end
$var parameter 32 1 UVM_PACK $end
$var parameter 32 2 UVM_NOPACK $end
$var parameter 32 3 UVM_PHYSICAL $end
$var parameter 32 4 UVM_ABSTRACT $end
$var parameter 32 5 UVM_READONLY $end
$var parameter 32 6 UVM_NODEFPRINT $end
$var parameter 32 7 UVM_MACRO_EXTRAS $end
$var parameter 32 8 UVM_FLAGS $end
$var parameter 32 9 UVM_UNPACK $end
$var parameter 32 : UVM_CHECK_FIELDS $end
$var parameter 32 ; UVM_END_DATA_EXTRA $end
$var parameter 32 < UVM_START_FUNCS $end
$var parameter 32 = UVM_SET $end
$var parameter 32 > UVM_SETINT $end
$var parameter 32 ? UVM_SETOBJ $end
$var parameter 32 @ UVM_SETSTR $end
$var parameter 32 A UVM_END_FUNCS $end
$var parameter 32 B UVM_STR_CRC_POLYNOMIAL $end
$var parameter 32 C UVM_STDOUT $end
$var parameter 32 D UVM_LINE_WIDTH $end
$var parameter 32 E UVM_NUM_LINES $end
$var parameter 32 F UVM_SMALL_STRING $end
$var parameter 32 G UVM_LARGE_STRING $end
$var reg 1 H uvm_start_uvm_declarations $end
$var integer 32 I uvm_global_random_seed $end
$var integer 32 J UVM_UNBOUNDED_CONNECTIONS $end

$scope function uvm_hdl_check_path $end
$var integer 32 K uvm_hdl_check_path $end
$upscope $end

$scope function uvm_hdl_deposit $end
$var integer 32 L uvm_hdl_deposit $end
$var reg 1024 M value [1023:0] $end
$upscope $end

$scope function uvm_hdl_force $end
$var integer 32 N uvm_hdl_force $end
$var reg 1024 O value [1023:0] $end
$upscope $end

$scope task uvm_hdl_force_time $end
$var reg 1024 P value [1023:0] $end
$var time 64 Q force_time $end
$upscope $end

$scope function uvm_hdl_release_and_read $end
$var integer 32 R uvm_hdl_release_and_read $end
$var reg 1024 S value [1023:0] $end
$upscope $end

$scope function uvm_hdl_release $end
$var integer 32 T uvm_hdl_release $end
$upscope $end

$scope function uvm_hdl_read $end
$var integer 32 U uvm_hdl_read $end
$var reg 1024 V value [1023:0] $end
$upscope $end

$scope function uvm_dpi_get_next_arg_c $end
$var integer 32 W init $end
$upscope $end

$scope function uvm_dpi_get_tool_name_c $end
$upscope $end

$scope function uvm_dpi_get_tool_version_c $end
$upscope $end

$scope function uvm_dpi_get_next_arg $end
$var integer 32 X init $end
$upscope $end

$scope function uvm_dpi_get_tool_name $end
$upscope $end

$scope function uvm_dpi_get_tool_version $end
$upscope $end

$scope function uvm_dpi_regcomp $end
$upscope $end

$scope function uvm_dpi_regexec $end
$var integer 32 Y uvm_dpi_regexec $end
$upscope $end

$scope function uvm_dpi_regfree $end
$upscope $end

$scope function uvm_re_match $end
$var integer 32 Z uvm_re_match $end
$upscope $end

$scope function uvm_dump_re_cache $end
$upscope $end

$scope function uvm_glob_to_re $end
$upscope $end

$scope function uvm_revision_string $end
$upscope $end

$scope function uvm_radix_to_string $end
$var integer 32 [ radix $end
$upscope $end

$scope function uvm_instance_scope $end
$var reg 8 \ c [7:0] $end
$var integer 32 ] pos $end
$upscope $end

$scope function uvm_oneway_hash $end
$var integer 32 ^ uvm_oneway_hash $end
$var integer 32 _ seed $end
$var reg 1 ` msb $end
$var reg 8 a current_byte [7:0] $end
$var reg 32 b crc1 [31:0] $end
$upscope $end

$scope function uvm_create_random_seed $end
$var integer 32 c uvm_create_random_seed $end
$upscope $end

$scope function uvm_object_value_str $end
$upscope $end

$scope function uvm_leaf_scope $end
$var reg 8 d scope_separator [7:0] $end
$var reg 8 e bracket_match [7:0] $end
$var integer 32 f pos $end
$var integer 32 g bmatches $end
$upscope $end

$scope function uvm_bitstream_to_string $end
$var reg 4096 h value [4095:0] $end
$var integer 32 i size $end
$var integer 32 j radix $end
$upscope $end

$scope function uvm_integral_to_string $end
$var reg 64 k value [63:0] $end
$var integer 32 l size $end
$var integer 32 m radix $end
$upscope $end

$scope function uvm_vector_to_string $end
$var reg 4096 n value [4095:0] $end
$var integer 32 o size $end
$var integer 32 p radix $end
$upscope $end

$scope function uvm_get_array_index_int $end
$var integer 32 q uvm_get_array_index_int $end
$var reg 1 r is_wildcard $end
$var integer 32 s i $end
$upscope $end

$scope function uvm_get_array_index_string $end
$var reg 1 t is_wildcard $end
$var integer 32 u i $end
$upscope $end

$scope function uvm_is_array $end
$var reg 1 v uvm_is_array $end
$upscope $end

$scope function uvm_has_wildcard $end
$upscope $end

$scope function m_uvm_string_queue_join $end
$upscope $end

$scope task run_test $end
$upscope $end

$scope function global_stop_request $end
$upscope $end

$scope function set_global_timeout $end
$var time 64 w timeout $end
$var reg 1 x overridable $end
$upscope $end

$scope function set_global_stop_timeout $end
$var time 64 y timeout $end
$upscope $end

$scope function uvm_get_report_object $end
$upscope $end

$scope function uvm_report_enabled $end
$var integer 32 z uvm_report_enabled $end
$var integer 32 { verbosity $end
$var reg 2 | severity [1:0] $end
$upscope $end

$scope function uvm_report $end
$var reg 2 } severity [1:0] $end
$var integer 32 ~ verbosity $end
$var integer 32 !! line $end
$var reg 1 "! report_enabled_checked $end
$upscope $end

$scope function m__uvm_report_dpi $end
$var integer 32 #! severity $end
$var integer 32 $! verbosity $end
$var integer 32 %! line $end
$upscope $end

$scope function uvm_report_info $end
$var integer 32 &! verbosity $end
$var integer 32 '! line $end
$var reg 1 (! report_enabled_checked $end
$upscope $end

$scope function uvm_report_warning $end
$var integer 32 )! verbosity $end
$var integer 32 *! line $end
$var reg 1 +! report_enabled_checked $end
$upscope $end

$scope function uvm_report_error $end
$var integer 32 ,! verbosity $end
$var integer 32 -! line $end
$var reg 1 .! report_enabled_checked $end
$upscope $end

$scope function uvm_report_fatal $end
$var integer 32 /! verbosity $end
$var integer 32 0! line $end
$var reg 1 1! report_enabled_checked $end
$upscope $end

$scope function uvm_process_report_message $end
$upscope $end

$scope function uvm_string_to_severity $end
$var reg 1 2! uvm_string_to_severity $end
$var reg 2 3! sev [1:0] $end
$upscope $end

$scope function uvm_string_to_action $end
$upscope $end

$scope function set_config_int $end
$var reg 4096 4! value [4095:0] $end
$upscope $end

$scope function set_config_object $end
$var reg 1 5! clone $end
$upscope $end

$scope function set_config_string $end
$upscope $end

$scope function uvm_is_match $end
$var reg 1 6! uvm_is_match $end
$upscope $end

$scope function uvm_string_to_bits $end
$var reg 115200 7! uvm_string_to_bits [115199:0] $end
$upscope $end

$scope function uvm_bits_to_string $end
$var reg 115200 8! str [115199:0] $end
$upscope $end

$scope task uvm_wait_for_nba_region $end
$var integer 32 9! nba $end
$var integer 32 :! next_nba $end
$upscope $end

$scope function uvm_split_string $end
$upscope $end

$scope function uvm_hdl_concat2string $end
$upscope $end
$upscope $end

$scope begin testbench_sv_unit $end
$upscope $end

$scope begin std $end
$upscope $end
$enddefinitions $end
#0
$dumpvars
0t
0v
02!
b0 3!
bx 7!
bx 8!
bx M
bx O
bx P
bx S
bx V
1H
1`
b1110001 a
b10101000001000100010101110101001 b
bx h
b1 k
bx n
0r
0x
b0 |
b0 }
0"!
1(!
1+!
0.!
01!
bx 4!
05!
06!
b10000000000 !
b1000000000000 "
b1111000000000000000000000000 #
b10001 $
b10101010101 %
b101010101 &
b101010101 '
b0 (
b1 )
b10 *
b100 +
b1000 ,
b10000 -
b100000 .
b1000000 /
b10000000 0
b100000000 1
b1000000000 2
b10000000000000 3
b100000000000000 4
b1000000000000000 5
b10000000000000000 6
b100000000000000000 7
b100000000000000001 8
b100000000000000010 9
b100000000000000011 :
b100000000000000100 ;
b100000000000000101 <
b100000000000000110 =
b100000000000000110 >
b100000000000000111 ?
b100000000000001000 @
b100000000000001000 A
b100110000010001110110110110 B
b1 C
b1111000 D
b1111000 E
b1110111111 F
b11100000111111111 G
b0 [
b101110 d
b0 e
b10010 f
b11111111111111111111111111111111 g
b0 u
b0 K
b0 L
b0 N
b0 R
b0 T
b0 U
b0 W
b0 X
b0 Y
b0 Z
b10101111111110001010110000110 I
b101110 \
b111 ]
b1101100110100111111001011011101 ^
b10101111111110001010110000110 _
b1110111011110011111010010110001 c
b0 i
b0 j
b100000 l
b10000000000000000000000000 m
b0 o
b0 p
b0 q
b0 s
b0 z
b111110100 {
b0 ~
b0 !!
b0 #!
b0 $!
b0 %!
b0 &!
b1000001 '!
b0 )!
b10110001000 *!
b0 ,!
b0 -!
b0 /!
b0 0!
b100011 9!
b100011 :!
b11111111111111111111111111111111 J
bx Q
bx w
bx y
$end
#10000
b100100 :!
b100101 :!
b100100 9!
b100101 9!
b0 g
b10 f
b1 f
b0 f
b10101010101010101010101010101010101010101010101010101010 k
b111000 l
b111000000000000000000000000 m
b1011 f
b1010 f
b1001 f
b1000 f
b111 f
b110 f
b101 f
b100 f
b11 f
b11111111111111111111111111111111 g
b1011 k
b1000 l
b0 g
b110 f
b101 f
b100 f
b11 f
b11111111111111111111111111111111 g
b111001000110110100000011011110001001000011111111 k
b110000 l
b0 g
b101 f
b100 f
b11 f
b11111111111111111111111111111111 g
b101101110000001011010111011001001111101011111010 k
b0 g
b101 f
b100 f
b11 f
b11111111111111111111111111111111 g
b100111101101010 k
b10000 l
b0 g
b110 f
b101 f
b100 f
b11 f
b11111111111111111111111111111111 g
b11001000111010101011001010110011101010011011101010111101100101001100111000011010011110111100001111100000010000010000111111010111100100011101100001000011000001110010100110101010011111010000100011010001010101101111011001001111001110101010001110100111010110101111010101000010110100110011110110010010000000101000110110101011010110111101110100001111101000001010000011101111100100110111001110000100000110000011111000111010100001111011101101110101001010000111111100110010000100011010101111000010100000111010010100001101 h
b1000000000 i
b111000000000000000000000000 j
b0 g
b1010 f
b1001 f
b1000 f
b111 f
b110 f
b101 f
b100 f
b11 f
b11111111111111111111111111111111 g
b1111110110110001101110110010000 k
b100000 l
b0 g
b110 f
b101 f
b100 f
b11 f
b11111111111111111111111111111111 g
b1010 k
b1000000 l
b1001000000000000000000000000 m
b0 g
b1101 f
b1100 f
b1011 f
b1010 f
b1001 f
b1000 f
b111 f
b110 f
b101 f
b100 f
b11 f
b11111111111111111111111111111111 g
b10 k
b100000 l
b10000000000000000000000000 m
b0 g
b1000 f
b111 f
b110 f
b101 f
b100 f
b11 f
b11111111111111111111111111111111 g
b0 g
b11001 f
b11000 f
b10111 f
b10110 f
b10101 f
b10100 f
b10011 f
b10010 f
b10001 f
b10000 f
b1111 f
b1110 f
b1101 f
b1100 f
b1011 f
b1010 f
b1001 f
b1000 f
b111 f
b110 f
b101 f
b100 f
b11 f
b11111111111111111111111111111111 g
b0 g
b11110 f
b11101 f
b11100 f
b11011 f
b11010 f
b11001 f
b11000 f
b10111 f
b10110 f
b10101 f
b10100 f
b10011 f
b10010 f
b10001 f
b10000 f
b1111 f
b1110 f
b1101 f
b1100 f
b1011 f
b1010 f
b1001 f
b1000 f
b111 f
b110 f
b101 f
b100 f
b11 f
b11111111111111111111111111111111 g
b0 g
b1100 f
b1011 f
b1010 f
b1001 f
b1000 f
b111 f
b110 f
b101 f
b100 f
b11 f
b11111111111111111111111111111111 g
b11110110101100010110011011010 c
b11110110101100010110011011101 c
#15000
b100110 :!
b100110 9!
b0 g
b10 f
b1 f
b0 f
b10101010101010101010101010101010101010101010101010101010 k
b111000 l
b111000000000000000000000000 m
b1011 f
b1010 f
b1001 f
b1000 f
b111 f
b110 f
b101 f
b100 f
b11 f
b11111111111111111111111111111111 g
b1011 k
b1000 l
b0 g
b110 f
b101 f
b100 f
b11 f
b11111111111111111111111111111111 g
b111110000010010101100011100011010000001101011010 k
b110000 l
b0 g
b101 f
b100 f
b11 f
b11111111111111111111111111111111 g
b111110011010010011111010001011110111001001111100 k
b0 g
b101 f
b100 f
b11 f
b11111111111111111111111111111111 g
b101010011011000 k
b10000 l
b0 g
b110 f
b101 f
b100 f
b11 f
b11111111111111111111111111111111 g
b1001110111011000101111011010011011111100001101010010010011101000100111000101010011111011111011110101000110101100110111011101100001001010010010100000101010110110000111000100111110010110100100111001000000111101001110001001011100110101100100100010110101111101001010111001001001100000111001111011001100101010110111011111001101001000010101100001000100110111111110000011110001111011011101110110011011000101101111100101101010000001110101010110101100111110111110101110010100010110111111110100100000010011010110111001 h
b0 g
b1010 f
b1001 f
b1000 f
b111 f
b110 f
b101 f
b100 f
b11 f
b11111111111111111111111111111111 g
b10100100011001100011001011001110 k
b100000 l
b0 g
b110 f
b101 f
b100 f
b11 f
b11111111111111111111111111111111 g
b1111 k
b1000000 l
b1001000000000000000000000000 m
b0 g
b1101 f
b1100 f
b1011 f
b1010 f
b1001 f
b1000 f
b111 f
b110 f
b101 f
b100 f
b11 f
b11111111111111111111111111111111 g
b10 k
b100000 l
b10000000000000000000000000 m
b0 g
b1000 f
b111 f
b110 f
b101 f
b100 f
b11 f
b11111111111111111111111111111111 g
b0 g
b11001 f
b11000 f
b10111 f
b10110 f
b10101 f
b10100 f
b10011 f
b10010 f
b10001 f
b10000 f
b1111 f
b1110 f
b1101 f
b1100 f
b1011 f
b1010 f
b1001 f
b1000 f
b111 f
b110 f
b101 f
b100 f
b11 f
b11111111111111111111111111111111 g
b0 g
b11110 f
b11101 f
b11100 f
b11011 f
b11010 f
b11001 f
b11000 f
b10111 f
b10110 f
b10101 f
b10100 f
b10011 f
b10010 f
b10001 f
b10000 f
b1111 f
b1110 f
b1101 f
b1100 f
b1011 f
b1010 f
b1001 f
b1000 f
b111 f
b110 f
b101 f
b100 f
b11 f
b11111111111111111111111111111111 g
b0 g
b1100 f
b1011 f
b1010 f
b1001 f
b1000 f
b111 f
b110 f
b101 f
b100 f
b11 f
b11111111111111111111111111111111 g
b110100010101111011100011 c
b110100010101111011100110 c
#25000
b100111 :!
b100111 9!
b0 g
b10 f
b1 f
b0 f
b10101010101010101010101010101010101010101010101010101010 k
b111000 l
b111000000000000000000000000 m
b1011 f
b1010 f
b1001 f
b1000 f
b111 f
b110 f
b101 f
b100 f
b11 f
b11111111111111111111111111111111 g
b1011 k
b1000 l
b0 g
b110 f
b101 f
b100 f
b11 f
b11111111111111111111111111111111 g
b1000101001001010011010001110111111010101010001 k
b110000 l
b0 g
b101 f
b100 f
b11 f
b11111111111111111111111111111111 g
b101001111110011001100110100110101011000101001001 k
b0 g
b101 f
b100 f
b11 f
b11111111111111111111111111111111 g
b1001000111001000 k
b10000 l
b0 g
b110 f
b101 f
b100 f
b11 f
b11111111111111111111111111111111 g
b10110111110000001111001000101000011111000101111001100100101110100011101100111011001100101101110100111100001111110100000000101001001110000111101101110101110100001100010100101111001111111001111111110011111100010101101011010101100011101001100001011000101010000100100011101001000001011000110011110110111011011010100110110100010001110110000011011111011100011011110011111010100010101000010100000111010101110100001001010000000111111101000001100101000100001010000001100101101001000010001110010011101010000111110100111110 h
b0 g
b1010 f
b1001 f
b1000 f
b111 f
b110 f
b101 f
b100 f
b11 f
b11111111111111111111111111111111 g
b1011110101101101010110011010110 k
b100000 l
b0 g
b110 f
b101 f
b100 f
b11 f
b11111111111111111111111111111111 g
b11001 k
b1000000 l
b1001000000000000000000000000 m
b0 g
b1101 f
b1100 f
b1011 f
b1010 f
b1001 f
b1000 f
b111 f
b110 f
b101 f
b100 f
b11 f
b11111111111111111111111111111111 g
b10 k
b100000 l
b10000000000000000000000000 m
b0 g
b1000 f
b111 f
b110 f
b101 f
b100 f
b11 f
b11111111111111111111111111111111 g
b0 g
b11001 f
b11000 f
b10111 f
b10110 f
b10101 f
b10100 f
b10011 f
b10010 f
b10001 f
b10000 f
b1111 f
b1110 f
b1101 f
b1100 f
b1011 f
b1010 f
b1001 f
b1000 f
b111 f
b110 f
b101 f
b100 f
b11 f
b11111111111111111111111111111111 g
b0 g
b11110 f
b11101 f
b11100 f
b11011 f
b11010 f
b11001 f
b11000 f
b10111 f
b10110 f
b10101 f
b10100 f
b10011 f
b10010 f
b10001 f
b10000 f
b1111 f
b1110 f
b1101 f
b1100 f
b1011 f
b1010 f
b1001 f
b1000 f
b111 f
b110 f
b101 f
b100 f
b11 f
b11111111111111111111111111111111 g
b0 g
b1100 f
b1011 f
b1010 f
b1001 f
b1000 f
b111 f
b110 f
b101 f
b100 f
b11 f
b11111111111111111111111111111111 g
b1101100110100111111001011100000 c
b1101100110100111111001011100011 c
#35000
b101000 :!
b101000 9!
b0 g
b10 f
b1 f
b0 f
b10101010101010101010101010101010101010101010101010101010 k
b111000 l
b111000000000000000000000000 m
b1011 f
b1010 f
b1001 f
b1000 f
b111 f
b110 f
b101 f
b100 f
b11 f
b11111111111111111111111111111111 g
b1011 k
b1000 l
b0 g
b110 f
b101 f
b100 f
b11 f
b11111111111111111111111111111111 g
b11111011100100011010001110011001011100110100101 k
b110000 l
b0 g
b101 f
b100 f
b11 f
b11111111111111111111111111111111 g
b101100000001001110110010000101110101100101100011 k
b0 g
b101 f
b100 f
b11 f
b11111111111111111111111111111111 g
b1010000000100 k
b10000 l
b0 g
b110 f
b101 f
b100 f
b11 f
b11111111111111111111111111111111 g
b11111110011101000000101100001111000110111100111000100101101100111010011010101110100000010100010111111100111100101010001101010010011101111010101110000100110010100011110001001111100110000100100001100011011000110101100011010010101011011100100011000100001110001000101011110110011011001000111110100110010100010001110111001011011111111101100101101000011011010010101000000011000110101111101010111111000110111101011110110010011100001011111111101110110111101011101000000001100100001100000010100100110001100111001000111010 h
b0 g
b1010 f
b1001 f
b1000 f
b111 f
b110 f
b101 f
b100 f
b11 f
b11111111111111111111111111111111 g
b10011101110100000101110110100 k
b100000 l
b0 g
b110 f
b101 f
b100 f
b11 f
b11111111111111111111111111111111 g
b100011 k
b1000000 l
b1001000000000000000000000000 m
b0 g
b1101 f
b1100 f
b1011 f
b1010 f
b1001 f
b1000 f
b111 f
b110 f
b101 f
b100 f
b11 f
b11111111111111111111111111111111 g
b10 k
b100000 l
b10000000000000000000000000 m
b0 g
b1000 f
b111 f
b110 f
b101 f
b100 f
b11 f
b11111111111111111111111111111111 g
b0 g
b11001 f
b11000 f
b10111 f
b10110 f
b10101 f
b10100 f
b10011 f
b10010 f
b10001 f
b10000 f
b1111 f
b1110 f
b1101 f
b1100 f
b1011 f
b1010 f
b1001 f
b1000 f
b111 f
b110 f
b101 f
b100 f
b11 f
b11111111111111111111111111111111 g
b0 g
b11110 f
b11101 f
b11100 f
b11011 f
b11010 f
b11001 f
b11000 f
b10111 f
b10110 f
b10101 f
b10100 f
b10011 f
b10010 f
b10001 f
b10000 f
b1111 f
b1110 f
b1101 f
b1100 f
b1011 f
b1010 f
b1001 f
b1000 f
b111 f
b110 f
b101 f
b100 f
b11 f
b11111111111111111111111111111111 g
b0 g
b1100 f
b1011 f
b1010 f
b1001 f
b1000 f
b111 f
b110 f
b101 f
b100 f
b11 f
b11111111111111111111111111111111 g
b11110110101100010110011100001 c
b11110110101100010110011100110 c
#45000
b101001 :!
b101001 9!
b0 g
b10 f
b1 f
b0 f
b10101010101010101010101010101010101010101010101010101010 k
b111000 l
b111000000000000000000000000 m
b1011 f
b1010 f
b1001 f
b1000 f
b111 f
b110 f
b101 f
b100 f
b11 f
b11111111111111111111111111111111 g
b1011 k
b1000 l
b0 g
b110 f
b101 f
b100 f
b11 f
b11111111111111111111111111111111 g
b110000100111000011110010101011110101101101101100 k
b110000 l
b0 g
b101 f
b100 f
b11 f
b11111111111111111111111111111111 g
b101110110111100000110001010001100110110001111100 k
b0 g
b101 f
b100 f
b11 f
b11111111111111111111111111111111 g
b1101011110001000 k
b10000 l
b0 g
b110 f
b101 f
b100 f
b11 f
b11111111111111111111111111111111 g
b1110010011110000001111101011011000100110100111000101100111101001010110000000010100101110000011111010001111111100110101011111011010011010010111011011010001001111100011010111100010111101111001100100011100010000001100010010001010011100111011000100011010010010110001000110111101100010110000001011111010000001111010010010000011001011001101100100111100100110011011001011111010100011101100101111110110100110000010110001001101000101111110100000000011011001110101100111111110011011110110110110100011011000001011011110 h
b0 g
b1010 f
b1001 f
b1000 f
b111 f
b110 f
b101 f
b100 f
b11 f
b11111111111111111111111111111111 g
b1101100010011001101010101101110 k
b100000 l
b0 g
b110 f
b101 f
b100 f
b11 f
b11111111111111111111111111111111 g
b101101 k
b1000000 l
b1001000000000000000000000000 m
b0 g
b1101 f
b1100 f
b1011 f
b1010 f
b1001 f
b1000 f
b111 f
b110 f
b101 f
b100 f
b11 f
b11111111111111111111111111111111 g
b10 k
b100000 l
b10000000000000000000000000 m
b0 g
b1000 f
b111 f
b110 f
b101 f
b100 f
b11 f
b11111111111111111111111111111111 g
b0 g
b11001 f
b11000 f
b10111 f
b10110 f
b10101 f
b10100 f
b10011 f
b10010 f
b10001 f
b10000 f
b1111 f
b1110 f
b1101 f
b1100 f
b1011 f
b1010 f
b1001 f
b1000 f
b111 f
b110 f
b101 f
b100 f
b11 f
b11111111111111111111111111111111 g
b0 g
b11110 f
b11101 f
b11100 f
b11011 f
b11010 f
b11001 f
b11000 f
b10111 f
b10110 f
b10101 f
b10100 f
b10011 f
b10010 f
b10001 f
b10000 f
b1111 f
b1110 f
b1101 f
b1100 f
b1011 f
b1010 f
b1001 f
b1000 f
b111 f
b110 f
b101 f
b100 f
b11 f
b11111111111111111111111111111111 g
b0 g
b1100 f
b1011 f
b1010 f
b1001 f
b1000 f
b111 f
b110 f
b101 f
b100 f
b11 f
b11111111111111111111111111111111 g
b110100010101111011101010 c
b110100010101111011101111 c
#55000
b101010 :!
b101010 9!
b0 g
b10 f
b1 f
b0 f
b10101010101010101010101010101010101010101010101010101010 k
b111000 l
b111000000000000000000000000 m
b1011 f
b1010 f
b1001 f
b1000 f
b111 f
b110 f
b101 f
b100 f
b11 f
b11111111111111111111111111111111 g
b1011 k
b1000 l
b0 g
b110 f
b101 f
b100 f
b11 f
b11111111111111111111111111111111 g
b10001000100100110110100110110010101111100101010 k
b110000 l
b0 g
b101 f
b100 f
b11 f
b11111111111111111111111111111111 g
b11111000000010000100010010000100110000101001100 k
b0 g
b101 f
b100 f
b11 f
b11111111111111111111111111111111 g
b1001110101111100 k
b10000 l
b0 g
b110 f
b101 f
b100 f
b11 f
b11111111111111111111111111111111 g
b10010110101110100010101001000100000010011111011011101010101111001110111101111011100010110110100010110110010100000111010100110011011111001000100101101100001110101110001110100100001000110010011000111011011100001111010001100000101111010100101010100010001101010000111001000111110100011010111001101111001101100001101011110100101101100100011000011011111011100110001100100101010101011101100001000010011001111000110011111011011001110110010000010011001111011011101100101001000101011011110100111111011110110010111100100 h
b0 g
b1010 f
b1001 f
b1000 f
b111 f
b110 f
b101 f
b100 f
b11 f
b11111111111111111111111111111111 g
b11000100001100110101110100100010 k
b100000 l
b0 g
b110 f
b101 f
b100 f
b11 f
b11111111111111111111111111111111 g
b110111 k
b1000000 l
b1001000000000000000000000000 m
b0 g
b1101 f
b1100 f
b1011 f
b1010 f
b1001 f
b1000 f
b111 f
b110 f
b101 f
b100 f
b11 f
b11111111111111111111111111111111 g
b10 k
b100000 l
b10000000000000000000000000 m
b0 g
b1000 f
b111 f
b110 f
b101 f
b100 f
b11 f
b11111111111111111111111111111111 g
b0 g
b11001 f
b11000 f
b10111 f
b10110 f
b10101 f
b10100 f
b10011 f
b10010 f
b10001 f
b10000 f
b1111 f
b1110 f
b1101 f
b1100 f
b1011 f
b1010 f
b1001 f
b1000 f
b111 f
b110 f
b101 f
b100 f
b11 f
b11111111111111111111111111111111 g
b0 g
b11110 f
b11101 f
b11100 f
b11011 f
b11010 f
b11001 f
b11000 f
b10111 f
b10110 f
b10101 f
b10100 f
b10011 f
b10010 f
b10001 f
b10000 f
b1111 f
b1110 f
b1101 f
b1100 f
b1011 f
b1010 f
b1001 f
b1000 f
b111 f
b110 f
b101 f
b100 f
b11 f
b11111111111111111111111111111111 g
b0 g
b1100 f
b1011 f
b1010 f
b1001 f
b1000 f
b111 f
b110 f
b101 f
b100 f
b11 f
b11111111111111111111111111111111 g
b1101100110100111111001011100111 c
b1101100110100111111001011101100 c
#65000
b101011 :!
b101011 9!
b0 g
b10 f
b1 f
b0 f
b10101010101010101010101010101010101010101010101010101010 k
b111000 l
b111000000000000000000000000 m
b1011 f
b1010 f
b1001 f
b1000 f
b111 f
b110 f
b101 f
b100 f
b11 f
b11111111111111111111111111111111 g
b1011 k
b1000 l
b0 g
b110 f
b101 f
b100 f
b11 f
b11111111111111111111111111111111 g
b1101101101111010100100011010101101000001110101 k
b110000 l
b0 g
b101 f
b100 f
b11 f
b11111111111111111111111111111111 g
b111110101111111100111011010010011110011010111111 k
b0 g
b101 f
b100 f
b11 f
b11111111111111111111111111111111 g
b1111010010101010 k
b10000 l
b0 g
b110 f
b101 f
b100 f
b11 f
b11111111111111111111111111111111 g
b10110000111001111101001110010010110010011110101111100100101010111000001111011000010101110101001001000101100110111000111010011001011101000010111010110100010011100111101100001100110101100100010001000000000110100001101111011110001101010011110001010001000100000111001110110100001100000100111010000000010011001001001110011000000001101001101001000010100111101101111000010111001001111100010010101001100101100110110001011100000101101001010001011000001010101101111001011110001001110100101110011100001011000000100110001111 h
b0 g
b1010 f
b1001 f
b1000 f
b111 f
b110 f
b101 f
b100 f
b11 f
b11111111111111111111111111111111 g
b11111101010111101110011100110000 k
b100000 l
b0 g
b110 f
b101 f
b100 f
b11 f
b11111111111111111111111111111111 g
b1000001 k
b1000000 l
b1001000000000000000000000000 m
b0 g
b1101 f
b1100 f
b1011 f
b1010 f
b1001 f
b1000 f
b111 f
b110 f
b101 f
b100 f
b11 f
b11111111111111111111111111111111 g
b10 k
b100000 l
b10000000000000000000000000 m
b0 g
b1000 f
b111 f
b110 f
b101 f
b100 f
b11 f
b11111111111111111111111111111111 g
b0 g
b11001 f
b11000 f
b10111 f
b10110 f
b10101 f
b10100 f
b10011 f
b10010 f
b10001 f
b10000 f
b1111 f
b1110 f
b1101 f
b1100 f
b1011 f
b1010 f
b1001 f
b1000 f
b111 f
b110 f
b101 f
b100 f
b11 f
b11111111111111111111111111111111 g
b0 g
b11110 f
b11101 f
b11100 f
b11011 f
b11010 f
b11001 f
b11000 f
b10111 f
b10110 f
b10101 f
b10100 f
b10011 f
b10010 f
b10001 f
b10000 f
b1111 f
b1110 f
b1101 f
b1100 f
b1011 f
b1010 f
b1001 f
b1000 f
b111 f
b110 f
b101 f
b100 f
b11 f
b11111111111111111111111111111111 g
b0 g
b1100 f
b1011 f
b1010 f
b1001 f
b1000 f
b111 f
b110 f
b101 f
b100 f
b11 f
b11111111111111111111111111111111 g
b11110110101100010110011101100 c
b11110110101100010110011110011 c
